uart/uart_tx/waves.vcd
$date
	Tue Nov 14 18:10:23 2023
$end
$version
	Icarus Verilog
$end
$timescale
	1ns
$end
$scope module uart_tx_tb $end
$var wire 1 ! tx_done $end
$var wire 1 " tx_data $end
$var wire 1 # tx_busy $end
$var reg 8 $ axis_in_tdata [7:0] $end
$var reg 1 % axis_in_tvalid $end
$var reg 1 & clk $end
$var reg 1 ' rst $end
$scope module dut $end
$var wire 8 ( axis_in_tdata [7:0] $end
$var wire 1 % axis_in_tvalid $end
$var wire 1 & clk $end
$var wire 1 ' rst $end
$var wire 1 " tx_data $end
$var wire 1 ! tx_done $end
$var wire 1 # tx_busy $end
$var reg 8 ) byte_mem [7:0] $end
$var reg 8 * clk_count [7:0] $end
$var reg 8 + next_byte_mem [7:0] $end
$var reg 8 , next_clk_count [7:0] $end
$var reg 1 - next_tx_data $end
$var reg 3 . next_tx_data_idx [2:0] $end
$var reg 1 / next_tx_done $end
$var reg 1 0 r_tx_data $end
$var reg 1 1 r_tx_done $end
$var reg 3 2 tx_data_idx [2:0] $end
$var integer 32 3 next_state [31:0] $end
$var integer 32 4 state [31:0] $end
$upscope $end
$upscope $end
$enddefinitions $end
#0
$dumpvars
b0 4
b0 3
bx 2
x1
x0
x/
bx .
x-
bx ,
bx +
bx *
bx )
bx (
0'
0&
x%
bx $
0#
x"
x!
$end
#20
0/
0-
b0 .
b0 ,
b0 +
0!
01
0"
00
b0 2
b0 *
b0 )
1'
1&
#40
0&
#60
0'
1&
#80
0&
#100
b1 3
1-
b10010010 +
b10010010 $
b10010010 (
1%
1&
#120
0&
#140
b1 ,
1"
10
b10010010 )
1#
b1 4
b1 3
0-
b10010010 +
0%
1&
#160
0&
#180
b10 ,
0"
00
b1 *
1&
#200
0&
#220
b11 ,
b10 *
1&
#240
0&
#260
b100 ,
b11 *
1&
#280
0&
#300
b101 ,
b100 *
1&
#320
0&
#340
b110 ,
b101 *
1&
#360
0&
#380
b111 ,
b110 *
1&
#400
0&
#420
b1000 ,
b111 *
1&
#440
0&
#460
b1001 ,
b1000 *
1&
#480
0&
#500
b1010 ,
b1001 *
1&
#520
0&
#540
b1011 ,
b1010 *
1&
#560
0&
#580
b1100 ,
b1011 *
1&
#600
0&
#620
b1101 ,
b1100 *
1&
#640
0&
#660
b1110 ,
b1101 *
1&
#680
0&
#700
b1111 ,
b1110 *
1&
#720
0&
#740
b10000 ,
b1111 *
1&
#760
0&
#780
b10001 ,
b10000 *
1&
#800
0&
#820
b10010 ,
b10001 *
1&
#840
0&
#860
b10011 ,
b10010 *
1&
#880
0&
#900
b10100 ,
b10011 *
1&
#920
0&
#940
b10101 ,
b10100 *
1&
#960
0&
#980
b10110 ,
b10101 *
1&
#1000
0&
#1020
b10111 ,
b10110 *
1&
#1040
0&
#1060
b11000 ,
b10111 *
1&
#1080
0&
#1100
b11001 ,
b11000 *
1&
#1120
0&
#1140
b11010 ,
b11001 *
1&
#1160
0&
#1180
b11011 ,
b11010 *
1&
#1200
0&
#1220
b11100 ,
b11011 *
1&
#1240
0&
#1260
b11101 ,
b11100 *
1&
#1280
0&
#1300
b11110 ,
b11101 *
1&
#1320
0&
#1340
b11111 ,
b11110 *
1&
#1360
0&
#1380
b100000 ,
b11111 *
1&
#1400
0&
#1420
b100001 ,
b100000 *
1&
#1440
0&
#1460
b100010 ,
b100001 *
1&
#1480
0&
#1500
b100011 ,
b100010 *
1&
#1520
0&
#1540
b100100 ,
b100011 *
1&
#1560
0&
#1580
b100101 ,
b100100 *
1&
#1600
0&
#1620
b100110 ,
b100101 *
1&
#1640
0&
#1660
b100111 ,
b100110 *
1&
#1680
0&
#1700
b101000 ,
b100111 *
1&
#1720
0&
#1740
b101001 ,
b101000 *
1&
#1760
0&
#1780
b101010 ,
b101001 *
1&
#1800
0&
#1820
b101011 ,
b101010 *
1&
#1840
0&
#1860
b101100 ,
b101011 *
1&
#1880
0&
#1900
b101101 ,
b101100 *
1&
#1920
0&
#1940
b101110 ,
b101101 *
1&
#1960
0&
#1980
b101111 ,
b101110 *
1&
#2000
0&
#2020
b110000 ,
b101111 *
1&
#2040
0&
#2060
b110001 ,
b110000 *
1&
#2080
0&
#2100
b110010 ,
b110001 *
1&
#2120
0&
#2140
b110011 ,
b110010 *
1&
#2160
0&
#2180
b110100 ,
b110011 *
1&
#2200
0&
#2220
b110101 ,
b110100 *
1&
#2240
0&
#2260
b110110 ,
b110101 *
1&
#2280
0&
#2300
b110111 ,
b110110 *
1&
#2320
0&
#2340
b111000 ,
b110111 *
1&
#2360
0&
#2380
b111001 ,
b111000 *
1&
#2400
0&
#2420
b111010 ,
b111001 *
1&
#2440
0&
#2460
b111011 ,
b111010 *
1&
#2480
0&
#2500
b111100 ,
b111011 *
1&
#2520
0&
#2540
b111101 ,
b111100 *
1&
#2560
0&
#2580
b111110 ,
b111101 *
1&
#2600
0&
#2620
b111111 ,
b111110 *
1&
#2640
0&
#2660
b1000000 ,
b111111 *
1&
#2680
0&
#2700
b1000001 ,
b1000000 *
1&
#2720
0&
#2740
b1000010 ,
b1000001 *
1&
#2760
0&
#2780
b1000011 ,
b1000010 *
1&
#2800
0&
#2820
b1000100 ,
b1000011 *
1&
#2840
0&
#2860
b1000101 ,
b1000100 *
1&
#2880
0&
#2900
b1000110 ,
b1000101 *
1&
#2920
0&
#2940
b1000111 ,
b1000110 *
1&
#2960
0&
#2980
b1001000 ,
b1000111 *
1&
#3000
0&
#3020
b1001001 ,
b1001000 *
1&
#3040
0&
#3060
b1001010 ,
b1001001 *
1&
#3080
0&
#3100
b1001011 ,
b1001010 *
1&
#3120
0&
#3140
b1001100 ,
b1001011 *
1&
#3160
0&
#3180
b1001101 ,
b1001100 *
1&
#3200
0&
#3220
b1001110 ,
b1001101 *
1&
#3240
0&
#3260
b1001111 ,
b1001110 *
1&
#3280
0&
#3300
b1010000 ,
b1001111 *
1&
#3320
0&
#3340
b1010001 ,
b1010000 *
1&
#3360
0&
#3380
b1010010 ,
b1010001 *
1&
#3400
0&
#3420
b1010011 ,
b1010010 *
1&
#3440
0&
#3460
b1010100 ,
b1010011 *
1&
#3480
0&
#3500
b1010101 ,
b1010100 *
1&
#3520
0&
#3540
b1010110 ,
b1010101 *
1&
#3560
0&
#3580
b1010111 ,
b1010110 *
1&
#3600
0&
#3620
b1011000 ,
b1010111 *
1&
#3640
0&
#3660
b1011001 ,
b1011000 *
1&
#3680
0&
#3700
b1011010 ,
b1011001 *
1&
#3720
0&
#3740
b1011011 ,
b1011010 *
1&
#3760
0&
#3780
b1011100 ,
b1011011 *
1&
#3800
0&
#3820
b1011101 ,
b1011100 *
1&
#3840
0&
#3860
b1011110 ,
b1011101 *
1&
#3880
0&
#3900
b1011111 ,
b1011110 *
1&
#3920
0&
#3940
b1100000 ,
b1011111 *
1&
#3960
0&
#3980
b1100001 ,
b1100000 *
1&
#4000
0&
#4020
b1100010 ,
b1100001 *
1&
#4040
0&
#4060
b1100011 ,
b1100010 *
1&
#4080
0&
#4100
b1100100 ,
b1100011 *
1&
#4120
0&
#4140
b1100101 ,
b1100100 *
1&
#4160
0&
#4180
b1100110 ,
b1100101 *
1&
#4200
0&
#4220
b1100111 ,
b1100110 *
1&
#4240
0&
#4260
b1101000 ,
b1100111 *
1&
#4280
0&
#4300
b1101001 ,
b1101000 *
1&
#4320
0&
#4340
b1101010 ,
b1101001 *
1&
#4360
0&
#4380
b1101011 ,
b1101010 *
1&
#4400
0&
#4420
b1101100 ,
b1101011 *
1&
#4440
0&
#4460
b1101101 ,
b1101100 *
1&
#4480
0&
#4500
b1101110 ,
b1101101 *
1&
#4520
0&
#4540
b1101111 ,
b1101110 *
1&
#4560
0&
#4580
b1110000 ,
b1101111 *
1&
#4600
0&
#4620
b1110001 ,
b1110000 *
1&
#4640
0&
#4660
b1110010 ,
b1110001 *
1&
#4680
0&
#4700
b1110011 ,
b1110010 *
1&
#4720
0&
#4740
b1110100 ,
b1110011 *
1&
#4760
0&
#4780
b1110101 ,
b1110100 *
1&
#4800
0&
#4820
b1110110 ,
b1110101 *
1&
#4840
0&
#4860
b1110111 ,
b1110110 *
1&
#4880
0&
#4900
b1111000 ,
b1110111 *
1&
#4920
0&
#4940
b1111001 ,
b1111000 *
1&
#4960
0&
#4980
b1111010 ,
b1111001 *
1&
#5000
0&
#5020
b1111011 ,
b1111010 *
1&
#5040
0&
#5060
b1111100 ,
b1111011 *
1&
#5080
0&
#5100
b1111101 ,
b1111100 *
1&
#5120
0&
#5140
b1111110 ,
b1111101 *
1&
#5160
0&
#5180
b1111111 ,
b1111110 *
1&
#5200
0&
#5220
b10000000 ,
b1111111 *
1&
#5240
0&
#5260
b10000001 ,
b10000000 *
1&
#5280
0&
#5300
b10000010 ,
b10000001 *
1&
#5320
0&
#5340
b10000011 ,
b10000010 *
1&
#5360
0&
#5380
b10000100 ,
b10000011 *
1&
#5400
0&
#5420
b10000101 ,
b10000100 *
1&
#5440
0&
#5460
b10000110 ,
b10000101 *
1&
#5480
0&
#5500
b10000111 ,
b10000110 *
1&
#5520
0&
#5540
b10001000 ,
b10000111 *
1&
#5560
0&
#5580
b10001001 ,
b10001000 *
1&
#5600
0&
#5620
b10001010 ,
b10001001 *
1&
#5640
0&
#5660
b10001011 ,
b10001010 *
1&
#5680
0&
#5700
b10001100 ,
b10001011 *
1&
#5720
0&
#5740
b10001101 ,
b10001100 *
1&
#5760
0&
#5780
b10001110 ,
b10001101 *
1&
#5800
0&
#5820
b10001111 ,
b10001110 *
1&
#5840
0&
#5860
b10010000 ,
b10001111 *
1&
#5880
0&
#5900
b10010001 ,
b10010000 *
1&
#5920
0&
#5940
b10010010 ,
b10010001 *
1&
#5960
0&
#5980
b10010011 ,
b10010010 *
1&
#6000
0&
#6020
b10010100 ,
b10010011 *
1&
#6040
0&
#6060
b10010101 ,
b10010100 *
1&
#6080
0&
#6100
b10010110 ,
b10010101 *
1&
#6120
0&
#6140
b10010111 ,
b10010110 *
1&
#6160
0&
#6180
b10011000 ,
b10010111 *
1&
#6200
0&
#6220
b10011001 ,
b10011000 *
1&
#6240
0&
#6260
b10011010 ,
b10011001 *
1&
#6280
0&
#6300
b10011011 ,
b10011010 *
1&
#6320
0&
#6340
b10011100 ,
b10011011 *
1&
#6360
0&
#6380
b10011101 ,
b10011100 *
1&
#6400
0&
#6420
b10011110 ,
b10011101 *
1&
#6440
0&
#6460
b10011111 ,
b10011110 *
1&
#6480
0&
#6500
b10100000 ,
b10011111 *
1&
#6520
0&
#6540
b10100001 ,
b10100000 *
1&
#6560
0&
#6580
b10100010 ,
b10100001 *
1&
#6600
0&
#6620
b10100011 ,
b10100010 *
1&
#6640
0&
#6660
b10100100 ,
b10100011 *
1&
#6680
0&
#6700
b10100101 ,
b10100100 *
1&
#6720
0&
#6740
b10100110 ,
b10100101 *
1&
#6760
0&
#6780
b10100111 ,
b10100110 *
1&
#6800
0&
#6820
b10101000 ,
b10100111 *
1&
#6840
0&
#6860
b10101001 ,
b10101000 *
1&
#6880
0&
#6900
b10101010 ,
b10101001 *
1&
#6920
0&
#6940
b10101011 ,
b10101010 *
1&
#6960
0&
#6980
b10101100 ,
b10101011 *
1&
#7000
0&
#7020
b10101101 ,
b10101100 *
1&
#7040
0&
#7060
b10101110 ,
b10101101 *
1&
#7080
0&
#7100
b10101111 ,
b10101110 *
1&
#7120
0&
#7140
b10110000 ,
b10101111 *
1&
#7160
0&
#7180
b10110001 ,
b10110000 *
1&
#7200
0&
#7220
b10110010 ,
b10110001 *
1&
#7240
0&
#7260
b10110011 ,
b10110010 *
1&
#7280
0&
#7300
b10110100 ,
b10110011 *
1&
#7320
0&
#7340
b10110101 ,
b10110100 *
1&
#7360
0&
#7380
b10110110 ,
b10110101 *
1&
#7400
0&
#7420
b10110111 ,
b10110110 *
1&
#7440
0&
#7460
b10111000 ,
b10110111 *
1&
#7480
0&
#7500
b10111001 ,
b10111000 *
1&
#7520
0&
#7540
b10111010 ,
b10111001 *
1&
#7560
0&
#7580
b10111011 ,
b10111010 *
1&
#7600
0&
#7620
b10111100 ,
b10111011 *
1&
#7640
0&
#7660
b10111101 ,
b10111100 *
1&
#7680
0&
#7700
b10111110 ,
b10111101 *
1&
#7720
0&
#7740
b10111111 ,
b10111110 *
1&
#7760
0&
#7780
b11000000 ,
b10111111 *
1&
#7800
0&
#7820
b11000001 ,
b11000000 *
1&
#7840
0&
#7860
b11000010 ,
b11000001 *
1&
#7880
0&
#7900
b11000011 ,
b11000010 *
1&
#7920
0&
#7940
b11000100 ,
b11000011 *
1&
#7960
0&
#7980
b11000101 ,
b11000100 *
1&
#8000
0&
#8020
b11000110 ,
b11000101 *
1&
#8040
0&
#8060
b11000111 ,
b11000110 *
1&
#8080
0&
#8100
b11001000 ,
b11000111 *
1&
#8120
0&
#8140
b11001001 ,
b11001000 *
1&
#8160
0&
#8180
b11001010 ,
b11001001 *
1&
#8200
0&
#8220
b11001011 ,
b11001010 *
1&
#8240
0&
#8260
b11001100 ,
b11001011 *
1&
#8280
0&
#8300
b11001101 ,
b11001100 *
1&
#8320
0&
#8340
b11001110 ,
b11001101 *
1&
#8360
0&
#8380
b11001111 ,
b11001110 *
1&
#8400
0&
#8420
b11010000 ,
b11001111 *
1&
#8440
0&
#8460
b11010001 ,
b11010000 *
1&
#8480
0&
#8500
b11010010 ,
b11010001 *
1&
#8520
0&
#8540
b11010011 ,
b11010010 *
1&
#8560
0&
#8580
b11010100 ,
b11010011 *
1&
#8600
0&
#8620
b11010101 ,
b11010100 *
1&
#8640
0&
#8660
b11010110 ,
b11010101 *
1&
#8680
0&
#8700
b11010111 ,
b11010110 *
1&
#8720
0&
#8740
b11011000 ,
b11010111 *
1&
#8760
0&
#8780
b10 3
b0 ,
b11011000 *
1&
#8800
0&
#8820
b1 ,
b0 *
b10 4
1&
#8840
0&
#8860
b10 ,
b1 *
1&
#8880
0&
#8900
b11 ,
b10 *
1&
#8920
0&
#8940
b100 ,
b11 *
1&
#8960
0&
#8980
b101 ,
b100 *
1&
#9000
0&
#9020
b110 ,
b101 *
1&
#9040
0&
#9060
b111 ,
b110 *
1&
#9080
0&
#9100
b1000 ,
b111 *
1&
#9120
0&
#9140
b1001 ,
b1000 *
1&
#9160
0&
#9180
b1010 ,
b1001 *
1&
#9200
0&
#9220
b1011 ,
b1010 *
1&
#9240
0&
#9260
b1100 ,
b1011 *
1&
#9280
0&
#9300
b1101 ,
b1100 *
1&
#9320
0&
#9340
b1110 ,
b1101 *
1&
#9360
0&
#9380
b1111 ,
b1110 *
1&
#9400
0&
#9420
b10000 ,
b1111 *
1&
#9440
0&
#9460
b10001 ,
b10000 *
1&
#9480
0&
#9500
b10010 ,
b10001 *
1&
#9520
0&
#9540
b10011 ,
b10010 *
1&
#9560
0&
#9580
b10100 ,
b10011 *
1&
#9600
0&
#9620
b10101 ,
b10100 *
1&
#9640
0&
#9660
b10110 ,
b10101 *
1&
#9680
0&
#9700
b10111 ,
b10110 *
1&
#9720
0&
#9740
b11000 ,
b10111 *
1&
#9760
0&
#9780
b11001 ,
b11000 *
1&
#9800
0&
#9820
b11010 ,
b11001 *
1&
#9840
0&
#9860
b11011 ,
b11010 *
1&
#9880
0&
#9900
b11100 ,
b11011 *
1&
#9920
0&
#9940
b11101 ,
b11100 *
1&
#9960
0&
#9980
b11110 ,
b11101 *
1&
#10000
0&
#10020
b11111 ,
b11110 *
1&
#10040
0&
#10060
b100000 ,
b11111 *
1&
#10080
0&
#10100
b100001 ,
b100000 *
1&
#10120
0&
#10140
b100010 ,
b100001 *
1&
#10160
0&
#10180
b100011 ,
b100010 *
1&
#10200
0&
#10220
b100100 ,
b100011 *
1&
#10240
0&
#10260
b100101 ,
b100100 *
1&
#10280
0&
#10300
b100110 ,
b100101 *
1&
#10320
0&
#10340
b100111 ,
b100110 *
1&
#10360
0&
#10380
b101000 ,
b100111 *
1&
#10400
0&
#10420
b101001 ,
b101000 *
1&
#10440
0&
#10460
b101010 ,
b101001 *
1&
#10480
0&
#10500
b101011 ,
b101010 *
1&
#10520
0&
#10540
b101100 ,
b101011 *
1&
#10560
0&
#10580
b101101 ,
b101100 *
1&
#10600
0&
#10620
b101110 ,
b101101 *
1&
#10640
0&
#10660
b101111 ,
b101110 *
1&
#10680
0&
#10700
b110000 ,
b101111 *
1&
#10720
0&
#10740
b110001 ,
b110000 *
1&
#10760
0&
#10780
b110010 ,
b110001 *
1&
#10800
0&
#10820
b110011 ,
b110010 *
1&
#10840
0&
#10860
b110100 ,
b110011 *
1&
#10880
0&
#10900
b110101 ,
b110100 *
1&
#10920
0&
#10940
b110110 ,
b110101 *
1&
#10960
0&
#10980
b110111 ,
b110110 *
1&
#11000
0&
#11020
b111000 ,
b110111 *
1&
#11040
0&
#11060
b111001 ,
b111000 *
1&
#11080
0&
#11100
b111010 ,
b111001 *
1&
#11120
0&
#11140
b111011 ,
b111010 *
1&
#11160
0&
#11180
b111100 ,
b111011 *
1&
#11200
0&
#11220
b111101 ,
b111100 *
1&
#11240
0&
#11260
b111110 ,
b111101 *
1&
#11280
0&
#11300
b111111 ,
b111110 *
1&
#11320
0&
#11340
b1000000 ,
b111111 *
1&
#11360
0&
#11380
b1000001 ,
b1000000 *
1&
#11400
0&
#11420
b1000010 ,
b1000001 *
1&
#11440
0&
#11460
b1000011 ,
b1000010 *
1&
#11480
0&
#11500
b1000100 ,
b1000011 *
1&
#11520
0&
#11540
b1000101 ,
b1000100 *
1&
#11560
0&
#11580
b1000110 ,
b1000101 *
1&
#11600
0&
#11620
b1000111 ,
b1000110 *
1&
#11640
0&
#11660
b1001000 ,
b1000111 *
1&
#11680
0&
#11700
b1001001 ,
b1001000 *
1&
#11720
0&
#11740
b1001010 ,
b1001001 *
1&
#11760
0&
#11780
b1001011 ,
b1001010 *
1&
#11800
0&
#11820
b1001100 ,
b1001011 *
1&
#11840
0&
#11860
b1001101 ,
b1001100 *
1&
#11880
0&
#11900
b1001110 ,
b1001101 *
1&
#11920
0&
#11940
b1001111 ,
b1001110 *
1&
#11960
0&
#11980
b1010000 ,
b1001111 *
1&
#12000
0&
#12020
b1010001 ,
b1010000 *
1&
#12040
0&
#12060
b1010010 ,
b1010001 *
1&
#12080
0&
#12100
b1010011 ,
b1010010 *
1&
#12120
0&
#12140
b1010100 ,
b1010011 *
1&
#12160
0&
#12180
b1010101 ,
b1010100 *
1&
#12200
0&
#12220
b1010110 ,
b1010101 *
1&
#12240
0&
#12260
b1010111 ,
b1010110 *
1&
#12280
0&
#12300
b1011000 ,
b1010111 *
1&
#12320
0&
#12340
b1011001 ,
b1011000 *
1&
#12360
0&
#12380
b1011010 ,
b1011001 *
1&
#12400
0&
#12420
b1011011 ,
b1011010 *
1&
#12440
0&
#12460
b1011100 ,
b1011011 *
1&
#12480
0&
#12500
b1011101 ,
b1011100 *
1&
#12520
0&
#12540
b1011110 ,
b1011101 *
1&
#12560
0&
#12580
b1011111 ,
b1011110 *
1&
#12600
0&
#12620
b1100000 ,
b1011111 *
1&
#12640
0&
#12660
b1100001 ,
b1100000 *
1&
#12680
0&
#12700
b1100010 ,
b1100001 *
1&
#12720
0&
#12740
b1100011 ,
b1100010 *
1&
#12760
0&
#12780
b1100100 ,
b1100011 *
1&
#12800
0&
#12820
b1100101 ,
b1100100 *
1&
#12840
0&
#12860
b1100110 ,
b1100101 *
1&
#12880
0&
#12900
b1100111 ,
b1100110 *
1&
#12920
0&
#12940
b1101000 ,
b1100111 *
1&
#12960
0&
#12980
b1101001 ,
b1101000 *
1&
#13000
0&
#13020
b1101010 ,
b1101001 *
1&
#13040
0&
#13060
b1101011 ,
b1101010 *
1&
#13080
0&
#13100
b1101100 ,
b1101011 *
1&
#13120
0&
#13140
b1101101 ,
b1101100 *
1&
#13160
0&
#13180
b1101110 ,
b1101101 *
1&
#13200
0&
#13220
b1101111 ,
b1101110 *
1&
#13240
0&
#13260
b1110000 ,
b1101111 *
1&
#13280
0&
#13300
b1110001 ,
b1110000 *
1&
#13320
0&
#13340
b1110010 ,
b1110001 *
1&
#13360
0&
#13380
b1110011 ,
b1110010 *
1&
#13400
0&
#13420
b1110100 ,
b1110011 *
1&
#13440
0&
#13460
b1110101 ,
b1110100 *
1&
#13480
0&
#13500
b1110110 ,
b1110101 *
1&
#13520
0&
#13540
b1110111 ,
b1110110 *
1&
#13560
0&
#13580
b1111000 ,
b1110111 *
1&
#13600
0&
#13620
b1111001 ,
b1111000 *
1&
#13640
0&
#13660
b1111010 ,
b1111001 *
1&
#13680
0&
#13700
b1111011 ,
b1111010 *
1&
#13720
0&
#13740
b1111100 ,
b1111011 *
1&
#13760
0&
#13780
b1111101 ,
b1111100 *
1&
#13800
0&
#13820
b1111110 ,
b1111101 *
1&
#13840
0&
#13860
b1111111 ,
b1111110 *
1&
#13880
0&
#13900
b10000000 ,
b1111111 *
1&
#13920
0&
#13940
b10000001 ,
b10000000 *
1&
#13960
0&
#13980
b10000010 ,
b10000001 *
1&
#14000
0&
#14020
b10000011 ,
b10000010 *
1&
#14040
0&
#14060
b10000100 ,
b10000011 *
1&
#14080
0&
#14100
b10000101 ,
b10000100 *
1&
#14120
0&
#14140
b10000110 ,
b10000101 *
1&
#14160
0&
#14180
b10000111 ,
b10000110 *
1&
#14200
0&
#14220
b10001000 ,
b10000111 *
1&
#14240
0&
#14260
b10001001 ,
b10001000 *
1&
#14280
0&
#14300
b10001010 ,
b10001001 *
1&
#14320
0&
#14340
b10001011 ,
b10001010 *
1&
#14360
0&
#14380
b10001100 ,
b10001011 *
1&
#14400
0&
#14420
b10001101 ,
b10001100 *
1&
#14440
0&
#14460
b10001110 ,
b10001101 *
1&
#14480
0&
#14500
b10001111 ,
b10001110 *
1&
#14520
0&
#14540
b10010000 ,
b10001111 *
1&
#14560
0&
#14580
b10010001 ,
b10010000 *
1&
#14600
0&
#14620
b10010010 ,
b10010001 *
1&
#14640
0&
#14660
b10010011 ,
b10010010 *
1&
#14680
0&
#14700
b10010100 ,
b10010011 *
1&
#14720
0&
#14740
b10010101 ,
b10010100 *
1&
#14760
0&
#14780
b10010110 ,
b10010101 *
1&
#14800
0&
#14820
b10010111 ,
b10010110 *
1&
#14840
0&
#14860
b10011000 ,
b10010111 *
1&
#14880
0&
#14900
b10011001 ,
b10011000 *
1&
#14920
0&
#14940
b10011010 ,
b10011001 *
1&
#14960
0&
#14980
b10011011 ,
b10011010 *
1&
#15000
0&
#15020
b10011100 ,
b10011011 *
1&
#15040
0&
#15060
b10011101 ,
b10011100 *
1&
#15080
0&
#15100
b10011110 ,
b10011101 *
1&
#15120
0&
#15140
b10011111 ,
b10011110 *
1&
#15160
0&
#15180
b10100000 ,
b10011111 *
1&
#15200
0&
#15220
b10100001 ,
b10100000 *
1&
#15240
0&
#15260
b10100010 ,
b10100001 *
1&
#15280
0&
#15300
b10100011 ,
b10100010 *
1&
#15320
0&
#15340
b10100100 ,
b10100011 *
1&
#15360
0&
#15380
b10100101 ,
b10100100 *
1&
#15400
0&
#15420
b10100110 ,
b10100101 *
1&
#15440
0&
#15460
b10100111 ,
b10100110 *
1&
#15480
0&
#15500
b10101000 ,
b10100111 *
1&
#15520
0&
#15540
b10101001 ,
b10101000 *
1&
#15560
0&
#15580
b10101010 ,
b10101001 *
1&
#15600
0&
#15620
b10101011 ,
b10101010 *
1&
#15640
0&
#15660
b10101100 ,
b10101011 *
1&
#15680
0&
#15700
b10101101 ,
b10101100 *
1&
#15720
0&
#15740
b10101110 ,
b10101101 *
1&
#15760
0&
#15780
b10101111 ,
b10101110 *
1&
#15800
0&
#15820
b10110000 ,
b10101111 *
1&
#15840
0&
#15860
b10110001 ,
b10110000 *
1&
#15880
0&
#15900
b10110010 ,
b10110001 *
1&
#15920
0&
#15940
b10110011 ,
b10110010 *
1&
#15960
0&
#15980
b10110100 ,
b10110011 *
1&
#16000
0&
#16020
b10110101 ,
b10110100 *
1&
#16040
0&
#16060
b10110110 ,
b10110101 *
1&
#16080
0&
#16100
b10110111 ,
b10110110 *
1&
#16120
0&
#16140
b10111000 ,
b10110111 *
1&
#16160
0&
#16180
b10111001 ,
b10111000 *
1&
#16200
0&
#16220
b10111010 ,
b10111001 *
1&
#16240
0&
#16260
b10111011 ,
b10111010 *
1&
#16280
0&
#16300
b10111100 ,
b10111011 *
1&
#16320
0&
#16340
b10111101 ,
b10111100 *
1&
#16360
0&
#16380
b10111110 ,
b10111101 *
1&
#16400
0&
#16420
b10111111 ,
b10111110 *
1&
#16440
0&
#16460
b11000000 ,
b10111111 *
1&
#16480
0&
#16500
b11000001 ,
b11000000 *
1&
#16520
0&
#16540
b11000010 ,
b11000001 *
1&
#16560
0&
#16580
b11000011 ,
b11000010 *
1&
#16600
0&
#16620
b11000100 ,
b11000011 *
1&
#16640
0&
#16660
b11000101 ,
b11000100 *
1&
#16680
0&
#16700
b11000110 ,
b11000101 *
1&
#16720
0&
#16740
b11000111 ,
b11000110 *
1&
#16760
0&
#16780
b11001000 ,
b11000111 *
1&
#16800
0&
#16820
b11001001 ,
b11001000 *
1&
#16840
0&
#16860
b11001010 ,
b11001001 *
1&
#16880
0&
#16900
b11001011 ,
b11001010 *
1&
#16920
0&
#16940
b11001100 ,
b11001011 *
1&
#16960
0&
#16980
b11001101 ,
b11001100 *
1&
#17000
0&
#17020
b11001110 ,
b11001101 *
1&
#17040
0&
#17060
b11001111 ,
b11001110 *
1&
#17080
0&
#17100
b11010000 ,
b11001111 *
1&
#17120
0&
#17140
b11010001 ,
b11010000 *
1&
#17160
0&
#17180
b11010010 ,
b11010001 *
1&
#17200
0&
#17220
b11010011 ,
b11010010 *
1&
#17240
0&
#17260
b11010100 ,
b11010011 *
1&
#17280
0&
#17300
b11010101 ,
b11010100 *
1&
#17320
0&
#17340
b11010110 ,
b11010101 *
1&
#17360
0&
#17380
b11010111 ,
b11010110 *
1&
#17400
0&
#17420
b11011000 ,
b11010111 *
1&
#17440
0&
#17460
b1 .
b0 ,
b11011000 *
1&
#17480
0&
#17500
b1 ,
1-
b1 2
b0 *
1&
#17520
0&
#17540
b10 ,
1"
10
b1 *
1&
#17560
0&
#17580
b11 ,
b10 *
1&
#17600
0&
#17620
b100 ,
b11 *
1&
#17640
0&
#17660
b101 ,
b100 *
1&
#17680
0&
#17700
b110 ,
b101 *
1&
#17720
0&
#17740
b111 ,
b110 *
1&
#17760
0&
#17780
b1000 ,
b111 *
1&
#17800
0&
#17820
b1001 ,
b1000 *
1&
#17840
0&
#17860
b1010 ,
b1001 *
1&
#17880
0&
#17900
b1011 ,
b1010 *
1&
#17920
0&
#17940
b1100 ,
b1011 *
1&
#17960
0&
#17980
b1101 ,
b1100 *
1&
#18000
0&
#18020
b1110 ,
b1101 *
1&
#18040
0&
#18060
b1111 ,
b1110 *
1&
#18080
0&
#18100
b10000 ,
b1111 *
1&
#18120
0&
#18140
b10001 ,
b10000 *
1&
#18160
0&
#18180
b10010 ,
b10001 *
1&
#18200
0&
#18220
b10011 ,
b10010 *
1&
#18240
0&
#18260
b10100 ,
b10011 *
1&
#18280
0&
#18300
b10101 ,
b10100 *
1&
#18320
0&
#18340
b10110 ,
b10101 *
1&
#18360
0&
#18380
b10111 ,
b10110 *
1&
#18400
0&
#18420
b11000 ,
b10111 *
1&
#18440
0&
#18460
b11001 ,
b11000 *
1&
#18480
0&
#18500
b11010 ,
b11001 *
1&
#18520
0&
#18540
b11011 ,
b11010 *
1&
#18560
0&
#18580
b11100 ,
b11011 *
1&
#18600
0&
#18620
b11101 ,
b11100 *
1&
#18640
0&
#18660
b11110 ,
b11101 *
1&
#18680
0&
#18700
b11111 ,
b11110 *
1&
#18720
0&
#18740
b100000 ,
b11111 *
1&
#18760
0&
#18780
b100001 ,
b100000 *
1&
#18800
0&
#18820
b100010 ,
b100001 *
1&
#18840
0&
#18860
b100011 ,
b100010 *
1&
#18880
0&
#18900
b100100 ,
b100011 *
1&
#18920
0&
#18940
b100101 ,
b100100 *
1&
#18960
0&
#18980
b100110 ,
b100101 *
1&
#19000
0&
#19020
b100111 ,
b100110 *
1&
#19040
0&
#19060
b101000 ,
b100111 *
1&
#19080
0&
#19100
b101001 ,
b101000 *
1&
#19120
0&
#19140
b101010 ,
b101001 *
1&
#19160
0&
#19180
b101011 ,
b101010 *
1&
#19200
0&
#19220
b101100 ,
b101011 *
1&
#19240
0&
#19260
b101101 ,
b101100 *
1&
#19280
0&
#19300
b101110 ,
b101101 *
1&
#19320
0&
#19340
b101111 ,
b101110 *
1&
#19360
0&
#19380
b110000 ,
b101111 *
1&
#19400
0&
#19420
b110001 ,
b110000 *
1&
#19440
0&
#19460
b110010 ,
b110001 *
1&
#19480
0&
#19500
b110011 ,
b110010 *
1&
#19520
0&
#19540
b110100 ,
b110011 *
1&
#19560
0&
#19580
b110101 ,
b110100 *
1&
#19600
0&
#19620
b110110 ,
b110101 *
1&
#19640
0&
#19660
b110111 ,
b110110 *
1&
#19680
0&
#19700
b111000 ,
b110111 *
1&
#19720
0&
#19740
b111001 ,
b111000 *
1&
#19760
0&
#19780
b111010 ,
b111001 *
1&
#19800
0&
#19820
b111011 ,
b111010 *
1&
#19840
0&
#19860
b111100 ,
b111011 *
1&
#19880
0&
#19900
b111101 ,
b111100 *
1&
#19920
0&
#19940
b111110 ,
b111101 *
1&
#19960
0&
#19980
b111111 ,
b111110 *
1&
#20000
0&
#20020
b1000000 ,
b111111 *
1&
#20040
0&
#20060
b1000001 ,
b1000000 *
1&
#20080
0&
#20100
b1000010 ,
b1000001 *
1&
#20120
0&
#20140
b1000011 ,
b1000010 *
1&
#20160
0&
#20180
b1000100 ,
b1000011 *
1&
#20200
0&
#20220
b1000101 ,
b1000100 *
1&
#20240
0&
